single_cycle/rtl/waveform.vcd
$version Generated by VerilatedVcd $end
$timescale 100ps $end
 $scope module TOP $end
  $scope module testbench $end
   $var wire 1 ,! Clock $end
   $var wire 1 -! nReset $end
   $scope module dut $end
    $var wire 1 ,! Clock $end
    $var wire 1 -! nReset $end
    $var wire 32 # instruction [31:0] $end
    $var wire 32 $ pc [31:0] $end
    $var wire 32 % pcNext [31:0] $end
    $var wire 1 & A $end
    $var wire 1 ' B $end
    $var wire 1 ( C $end
    $var wire 1 ) D $end
    $var wire 1 * E $end
    $var wire 1 + F $end
    $var wire 1 , G $end
    $var wire 1 - H $end
    $var wire 1 . branch $end
    $var wire 1 / writeReg $end
    $var wire 1 0 writeRam $end
    $var wire 4 1 aluCode [3:0] $end
    $var wire 3 2 immSample [2:0] $end
    $var wire 32 3 Bout [31:0] $end
    $var wire 32 4 Cout [31:0] $end
    $var wire 32 5 Dout [31:0] $end
    $var wire 32 6 Eout [31:0] $end
    $var wire 32 7 Fout [31:0] $end
    $var wire 32 8 Gout [31:0] $end
    $var wire 32 9 aluResult [31:0] $end
    $var wire 32 : rs1 [31:0] $end
    $var wire 32 ; rs2 [31:0] $end
    $var wire 32 < ramOut [31:0] $end
    $var wire 32 = branchLogicOut [31:0] $end
    $var wire 1 > zeroFlag $end
    $var wire 1 ? negFlag $end
    $var wire 1 @ carryFlag $end
    $scope module alu0 $end
     $var wire 32 9 aluResult [31:0] $end
     $var wire 1 ? negative_flag $end
     $var wire 1 > zero_flag $end
     $var wire 1 @ carry_flag $end
     $var wire 4 1 aluCode [3:0] $end
     $var wire 32 8 aluIn1 [31:0] $end
     $var wire 32 5 aluIn2 [31:0] $end
    $upscope $end
    $scope module b $end
     $var wire 32 3 result [31:0] $end
     $var wire 32 6 aluIn [31:0] $end
     $var wire 12 A immIn [11:0] $end
     $var wire 1 ' B $end
    $upscope $end
    $scope module branLog0 $end
     $var wire 32 = PCout [31:0] $end
     $var wire 3 B ctrl [2:0] $end
     $var wire 1 . branch $end
     $var wire 1 ? neg_flag $end
     $var wire 1 > zero_flag $end
     $var wire 1 @ carry_flag $end
     $var wire 32 3 PCin [31:0] $end
    $upscope $end
    $scope module c $end
     $var wire 32 4 result [31:0] $end
     $var wire 20 C a [19:0] $end
     $var wire 32 7 b [31:0] $end
     $var wire 1 ( C $end
    $upscope $end
    $scope module d $end
     $var wire 32 5 result [31:0] $end
     $var wire 32 ; rs2 [31:0] $end
     $var wire 25 D imm [24:0] $end
     $var wire 3 2 immSample [2:0] $end
     $var wire 1 ) D $end
    $upscope $end
    $scope module decoder0 $end
     $var wire 1 / writeReg $end
     $var wire 1 0 writeRam $end
     $var wire 1 . branch $end
     $var wire 4 1 aluCode [3:0] $end
     $var wire 3 2 immSample [2:0] $end
     $var wire 1 & A $end
     $var wire 1 ' B $end
     $var wire 1 ( C $end
     $var wire 1 ) D $end
     $var wire 1 * E $end
     $var wire 1 + F $end
     $var wire 1 , G $end
     $var wire 1 - H $end
     $var wire 5 E opcode [4:0] $end
     $var wire 4 F ctrl [3:0] $end
    $upscope $end
    $scope module e $end
     $var wire 32 6 result [31:0] $end
     $var wire 32 9 a [31:0] $end
     $var wire 32 < b [31:0] $end
     $var wire 1 * E $end
    $upscope $end
    $scope module f $end
     $var wire 32 7 result [31:0] $end
     $var wire 32 % a [31:0] $end
     $var wire 32 6 b [31:0] $end
     $var wire 1 + F $end
    $upscope $end
    $scope module g $end
     $var wire 32 8 result [31:0] $end
     $var wire 32 $ a [31:0] $end
     $var wire 32 : b [31:0] $end
     $var wire 1 , G $end
    $upscope $end
    $scope module progCounter $end
     $var wire 1 ,! Clock $end
     $var wire 1 -! nReset $end
     $var wire 32 = PCin [31:0] $end
     $var wire 1 & A $end
     $var wire 1 - H $end
     $var wire 32 $ PC [31:0] $end
     $var wire 32 % PCnext [31:0] $end
    $upscope $end
    $scope module progMem0 $end
     $var wire 32 $ PC [31:0] $end
     $var wire 32 # instruction [31:0] $end
    $upscope $end
    $scope module ram0 $end
     $var wire 32 < rData [31:0] $end
     $var wire 1 ,! Clock $end
     $var wire 1 -! nReset $end
     $var wire 1 0 writeRam $end
     $var wire 3 B ctrl [2:0] $end
     $var wire 32 9 address [31:0] $end
     $var wire 32 ; wData [31:0] $end
     $var wire 8 G ramMemory[0] [7:0] $end
     $var wire 8 H ramMemory[1] [7:0] $end
     $var wire 8 I ramMemory[2] [7:0] $end
     $var wire 8 J ramMemory[3] [7:0] $end
     $var wire 8 K ramMemory[4] [7:0] $end
     $var wire 8 L ramMemory[5] [7:0] $end
     $var wire 8 M ramMemory[6] [7:0] $end
     $var wire 8 N ramMemory[7] [7:0] $end
     $var wire 8 O ramMemory[8] [7:0] $end
     $var wire 8 P ramMemory[9] [7:0] $end
     $var wire 8 Q ramMemory[10] [7:0] $end
     $var wire 8 R ramMemory[11] [7:0] $end
     $var wire 8 S ramMemory[12] [7:0] $end
     $var wire 8 T ramMemory[13] [7:0] $end
     $var wire 8 U ramMemory[14] [7:0] $end
     $var wire 8 V ramMemory[15] [7:0] $end
     $var wire 8 W ramMemory[16] [7:0] $end
     $var wire 8 X ramMemory[17] [7:0] $end
     $var wire 8 Y ramMemory[18] [7:0] $end
     $var wire 8 Z ramMemory[19] [7:0] $end
     $var wire 8 [ ramMemory[20] [7:0] $end
     $var wire 8 \ ramMemory[21] [7:0] $end
     $var wire 8 ] ramMemory[22] [7:0] $end
     $var wire 8 ^ ramMemory[23] [7:0] $end
     $var wire 8 _ ramMemory[24] [7:0] $end
     $var wire 8 ` ramMemory[25] [7:0] $end
     $var wire 8 a ramMemory[26] [7:0] $end
     $var wire 8 b ramMemory[27] [7:0] $end
     $var wire 8 c ramMemory[28] [7:0] $end
     $var wire 8 d ramMemory[29] [7:0] $end
     $var wire 8 e ramMemory[30] [7:0] $end
     $var wire 8 f ramMemory[31] [7:0] $end
    $upscope $end
    $scope module regMem0 $end
     $var wire 32 : rs1 [31:0] $end
     $var wire 32 ; rs2 [31:0] $end
     $var wire 1 ,! Clock $end
     $var wire 1 -! nReset $end
     $var wire 1 / writeRegMem $end
     $var wire 5 g rd [4:0] $end
     $var wire 5 h addr1 [4:0] $end
     $var wire 5 i addr2 [4:0] $end
     $var wire 32 4 dataIn [31:0] $end
     $var wire 32 j regMemory[0] [31:0] $end
     $var wire 32 k regMemory[1] [31:0] $end
     $var wire 32 l regMemory[2] [31:0] $end
     $var wire 32 m regMemory[3] [31:0] $end
     $var wire 32 n regMemory[4] [31:0] $end
     $var wire 32 o regMemory[5] [31:0] $end
     $var wire 32 p regMemory[6] [31:0] $end
     $var wire 32 q regMemory[7] [31:0] $end
     $var wire 32 r regMemory[8] [31:0] $end
     $var wire 32 s regMemory[9] [31:0] $end
     $var wire 32 t regMemory[10] [31:0] $end
     $var wire 32 u regMemory[11] [31:0] $end
     $var wire 32 v regMemory[12] [31:0] $end
     $var wire 32 w regMemory[13] [31:0] $end
     $var wire 32 x regMemory[14] [31:0] $end
     $var wire 32 y regMemory[15] [31:0] $end
     $var wire 32 z regMemory[16] [31:0] $end
     $var wire 32 { regMemory[17] [31:0] $end
     $var wire 32 | regMemory[18] [31:0] $end
     $var wire 32 } regMemory[19] [31:0] $end
     $var wire 32 ~ regMemory[20] [31:0] $end
     $var wire 32 !! regMemory[21] [31:0] $end
     $var wire 32 "! regMemory[22] [31:0] $end
     $var wire 32 #! regMemory[23] [31:0] $end
     $var wire 32 $! regMemory[24] [31:0] $end
     $var wire 32 %! regMemory[25] [31:0] $end
     $var wire 32 &! regMemory[26] [31:0] $end
     $var wire 32 '! regMemory[27] [31:0] $end
     $var wire 32 (! regMemory[28] [31:0] $end
     $var wire 32 )! regMemory[29] [31:0] $end
     $var wire 32 *! regMemory[30] [31:0] $end
     $var wire 32 +! regMemory[31] [31:0] $end
    $upscope $end
   $upscope $end
  $upscope $end
 $upscope $end
$enddefinitions $end


#0
b11111101000000010000000100010011 #
b00000000000000000000000000000000 $
b00000000000000000000000000000100 %
1&
0'
1(
0)
0*
1+
1,
0-
0.
1/
00
b0000 1
b000 2
b11111111111111111111011111000010 3
b11111111111111111111111111010000 4
b11111111111111111111111111010000 5
b11111111111111111111111111010000 6
b11111111111111111111111111010000 7
b00000000000000000000000000000000 8
b11111111111111111111111111010000 9
b00000000000000000000000000000000 :
b00000000000000000000000000000000 ;
b00000000000000000000000000000000 <
b11111111111111111111011111000010 =
0>
1?
0@
b111111000010 A
b000 B
b11111101000000010000 C
b1111110100000001000000010 D
b00100 E
b1000 F
b00000000 G
b00000000 H
b00000000 I
b00000000 J
b00000000 K
b00000000 L
b00000000 M
b00000000 N
b00000000 O
b00000000 P
b00000000 Q
b00000000 R
b00000000 S
b00000000 T
b00000000 U
b00000000 V
b00000000 W
b00000000 X
b00000000 Y
b00000000 Z
b00000000 [
b00000000 \
b00000000 ]
b00000000 ^
b00000000 _
b00000000 `
b00000000 a
b00000000 b
b00000000 c
b00000000 d
b00000000 e
b00000000 f
b00010 g
b00010 h
b10000 i
b00000000000000000000000000000000 j
b00000000000000000000000000000000 k
b00000000000000000000000000000000 l
b00000000000000000000000000000000 m
b00000000000000000000000000000000 n
b00000000000000000000000000000000 o
b00000000000000000000000000000000 p
b00000000000000000000000000000000 q
b00000000000000000000000000000000 r
b00000000000000000000000000000000 s
b00000000000000000000000000000000 t
b00000000000000000000000000000000 u
b00000000000000000000000000000000 v
b00000000000000000000000000000000 w
b00000000000000000000000000000000 x
b00000000000000000000000000000000 y
b00000000000000000000000000000000 z
b00000000000000000000000000000000 {
b00000000000000000000000000000000 |
b00000000000000000000000000000000 }
b00000000000000000000000000000000 ~
b00000000000000000000000000000000 !!
b00000000000000000000000000000000 "!
b00000000000000000000000000000000 #!
b00000000000000000000000000000000 $!
b00000000000000000000000000000000 %!
b00000000000000000000000000000000 &!
b00000000000000000000000000000000 '!
b00000000000000000000000000000000 (!
b00000000000000000000000000000000 )!
b00000000000000000000000000000000 *!
b00000000000000000000000000000000 +!
1,!
1-!
#100
0-!
#200
1-!
#1000
0,!
#2000
b00000010100000010010011000100011 #
b00000000000000000000000000000100 $
b00000000000000000000000000001000 %
0(
0/
10
b010 2
b00000000000000000000000000101100 3
b00000010100000010010000000000000 4
b00000000000000000000000000101100 5
b11111111111111111111111111111100 6
b11111111111111111111111111111100 7
b11111111111111111111111111010000 8
b11111111111111111111111111111100 9
b11111111111111111111111111010000 :
b00000000000000000000000000101100 =
b000000101100 A
b010 B
b00000010100000010010 C
b0000001010000001001001100 D
b01000 E
b0010 F
b01100 g
b01000 i
b11111111111111111111111111010000 l
1,!
#3000
0,!
#4000
b00000011000000010000010000010011 #
b00000000000000000000000000001000 $
b00000000000000000000000000001100 %
1(
1/
00
b000 2
b00000000000000000000000000101000 3
b00000000000000000000000000000000 4
b00000000000000000000000000110000 5
b00000000000000000000000000000000 6
b00000000000000000000000000000000 7
b00000000000000000000000000000000 9
b00000000000000000000000000101000 =
1>
0?
b000000101000 A
b000 B
b00000011000000010000 C
b0000001100000001000001000 D
b00100 E
b0000 F
b01000 g
b10000 i
1,!
#5000
0,!
#6000
b00000000100000000000011110010011 #
b00000000000000000000000000001100 $
b00000000000000000000000000010000 %
b00000000000000000000100000001110 3
b00000000000000000000000000001000 4
b00000000000000000000000000001000 5
b00000000000000000000000000001000 6
b00000000000000000000000000001000 7
b00000000000000000000000000000000 8
b00000000000000000000000000001000 9
b00000000000000000000000000000000 :
b00000000000000000000100000001110 =
0>
b000000001111 A
b00000000100000000000 C
b0000000010000000000001111 D
b01111 g
b00000 h
b01000 i
1,!
#7000
0,!
#8000
b11111110111101000010011000100011 #
b00000000000000000000000000010000 $
b00000000000000000000000000010100 %
0(
0/
10
b010 2
b11111111111111111111011111101100 3
b11111110111101000010000000000000 4
b11111111111111111111111111101100 5
b11111111111111111111111111101100 6
b11111111111111111111111111101100 7
b11111111111111111111111111101100 9
b00000000000000000000000000001000 ;
b11111111111111111111011111101100 =
1?
b111111101100 A
b010 B
b11111110111101000010 C
b1111111011110100001001100 D
b01000 E
b1010 F
b01100 g
b01000 h
b01111 i
b00000000000000000000000000001000 y
1,!
#9000
0,!
#10000
b00000000011100000000011110010011 #
b00000000000000000000000000010100 $
b00000000000000000000000000011000 %
1(
1/
00
b000 2
b00000000000000000000100000001110 3
b00000000000000000000000000000111 4
b00000000000000000000000000000111 5
b00000000000000000000000000000111 6
b00000000000000000000000000000111 7
b00000000000000000000000000000111 9
b00000000000000000000000000000000 ;
b00000000000000000000100000001110 =
0?
b000000001111 A
b000 B
b00000000011100000000 C
b0000000001110000000001111 D
b00100 E
b0000 F
b00001000 S
b01111 g
b00000 h
b00111 i
1,!
#11000
0,!
#12000
b11111110111101000010010000100011 #
b00000000000000000000000000011000 $
b00000000000000000000000000011100 %
0(
0/
10
b010 2
b11111111111111111111011111101000 3
b11111110111101000010000000000000 4
b11111111111111111111111111101000 5
b11111111111111111111111111101000 6
b11111111111111111111111111101000 7
b11111111111111111111111111101000 9
b00000000000000000000000000000111 ;
b11111111111111111111011111101000 =
1?
b111111101000 A
b010 B
b11111110111101000010 C
b1111111011110100001001000 D
b01000 E
b1010 F
b01000 g
b01000 h
b01111 i
b00000000000000000000000000000111 y
1,!
#13000
0,!
#14000
b00000000000100000000011110010011 #
b00000000000000000000000000011100 $
b00000000000000000000000000100000 %
1(
1/
00
b000 2
b00000000000000000000100000001110 3
b00000000000000000000000000000001 4
b00000000000000000000000000000001 5
b00000000000000000000000000000001 6
b00000000000000000000000000000001 7
b00000000000000000000000000000001 9
b00000000000000000000000000000000 ;
b00000000000000000000100000001110 =
0?
b000000001111 A
b000 B
b00000000000100000000 C
b0000000000010000000001111 D
b00100 E
b0000 F
b00000111 O
b01111 g
b00000 h
b00001 i
1,!
#15000
0,!
#16000
b11111110111101000010001000100011 #
b00000000000000000000000000100000 $
b00000000000000000000000000100100 %
0(
0/
10
b010 2
b11111111111111111111011111100100 3
b11111110111101000010000000000000 4
b11111111111111111111111111100100 5
b11111111111111111111111111100100 6
b11111111111111111111111111100100 7
b11111111111111111111111111100100 9
b00000000000000000000000000000001 ;
b11111111111111111111011111100100 =
1?
b111111100100 A
b010 B
b11111110111101000010 C
b1111111011110100001000100 D
b01000 E
b1010 F
b00100 g
b01000 h
b01111 i
b00000000000000000000000000000001 y
1,!
#17000
0,!
#18000
b11111110110001000010011100000011 #
b00000000000000000000000000100100 $
b00000000000000000000000000101000 %
1(
1*
1/
00
b000 2
b11111111111111111111011111101110 3
b00000000000000000000000000001000 4
b11111111111111111111111111101100 5
b00000000000000000000000000001000 6
b00000000000000000000000000001000 7
b11111111111111111111111111101100 9
b00000000000000000000000000000000 ;
b00000000000000000000000000001000 <
b11111111111111111111011111101110 =
b111111101110 A
b11111110110001000010 C
b1111111011000100001001110 D
b00000 E
b00000001 K
b01110 g
b01100 i
1,!
#19000
0,!
#20000
b11111110100001000010011110000011 #
b00000000000000000000000000101000 $
b00000000000000000000000000101100 %
b11111111111111111111111111101110 3
b00000000000000000000000000000111 4
b11111111111111111111111111101000 5
b00000000000000000000000000000111 6
b00000000000000000000000000000111 7
b11111111111111111111111111101000 9
b00000000000000000000000000000111 <
b11111111111111111111111111101110 =
b111111101111 A
b11111110100001000010 C
b1111111010000100001001111 D
b01111 g
b01000 i
b00000000000000000000000000001000 x
1,!
#21000
0,!
#22000
b00000000111101110000011110110011 #
b00000000000000000000000000101100 $
b00000000000000000000000000110000 %
1)
0*
b111 2
b00000000000000000000100000001110 3
b00000000000000000000000000001111 4
b00000000000000000000000000000111 5
b00000000000000000000000000001111 6
b00000000000000000000000000001111 7
b00000000000000000000000000001000 8
b00000000000000000000000000001111 9
b00000000000000000000000000001000 :
b00000000000000000000000000000111 ;
b00000000000000000000000000000000 <
b00000000000000000000100000001110 =
0?
b000000001111 A
b000 B
b00000000111101110000 C
b0000000011110111000001111 D
b01100 E
b0000 F
b01110 h
b01111 i
b00000000000000000000000000000111 y
1,!
#23000
0,!
#24000
b11111110111101000010000000100011 #
b00000000000000000000000000110000 $
b00000000000000000000000000110100 %
0(
0)
0/
10
b010 2
b11111111111111111111011111100000 3
b11111110111101000010000000000000 4
b11111111111111111111111111100000 5
b11111111111111111111111111100000 6
b11111111111111111111111111100000 7
b00000000000000000000000000000000 8
b11111111111111111111111111100000 9
b00000000000000000000000000000000 :
b00000000000000000000000000001111 ;
b11111111111111111111011111100000 =
1?
b111111100000 A
b010 B
b11111110111101000010 C
b1111111011110100001000000 D
b01000 E
b1010 F
b00000 g
b01000 h
b00000000000000000000000000001111 y
1,!
#25000
0,!
#26000
b11111110010001000010011100000011 #
b00000000000000000000000000110100 $
b00000000000000000000000000111000 %
1(
1*
1/
00
b000 2
b11111111111111111111011111101110 3
b00000000000000000000000000000001 4
b11111111111111111111111111100100 5
b00000000000000000000000000000001 6
b00000000000000000000000000000001 7
b11111111111111111111111111100100 9
b00000000000000000000000000000000 ;
b00000000000000000000000000000001 <
b11111111111111111111011111101110 =
b111111101110 A
b11111110010001000010 C
b1111111001000100001001110 D
b00000 E
b00001111 G
b01110 g
b00100 i
1,!
#27000
0,!
#28000
b11111110110001000010011110000011 #
b00000000000000000000000000111000 $
b00000000000000000000000000111100 %
b11111111111111111111111111101110 3
b00000000000000000000000000001000 4
b11111111111111111111111111101100 5
b00000000000000000000000000001000 6
b00000000000000000000000000001000 7
b11111111111111111111111111101100 9
b00000000000000000000000000001000 <
b11111111111111111111111111101110 =
b111111101111 A
b11111110110001000010 C
b1111111011000100001001111 D
b01111 g
b01100 i
b00000000000000000000000000000001 x
1,!
#29000
0,!
#30000
b00000000111101110000011110110011 #
b00000000000000000000000000111100 $
b00000000000000000000000001000000 %
1)
0*
b111 2
b00000000000000000000100000001110 3
b00000000000000000000000000001001 4
b00000000000000000000000000001000 5
b00000000000000000000000000001001 6
b00000000000000000000000000001001 7
b00000000000000000000000000000001 8
b00000000000000000000000000001001 9
b00000000000000000000000000000001 :
b00000000000000000000000000001000 ;
b00000000000000000000000000000000 <
b00000000000000000000100000001110 =
0?
b000000001111 A
b000 B
b00000000111101110000 C
b0000000011110111000001111 D
b01100 E
b0000 F
b01110 h
b01111 i
b00000000000000000000000000001000 y
1,!
#31000
0,!
#32000
b11111100111101000010111000100011 #
b00000000000000000000000001000000 $
b00000000000000000000000001000100 %
0(
0)
0/
10
b010 2
b11111111111111111111011111011100 3
b11111100111101000010000000000000 4
b11111111111111111111111111011100 5
b11111111111111111111111111011100 6
b11111111111111111111111111011100 7
b00000000000000000000000000000000 8
b11111111111111111111111111011100 9
b00000000000000000000000000000000 :
b00000000000000000000000000001001 ;
b11111111111111111111011111011100 =
1?
b111111011100 A
b010 B
b11111100111101000010 C
b1111110011110100001011100 D
b01000 E
b1010 F
b11100 g
b01000 h
b00000000000000000000000000001001 y
1,!
#33000
0,!
#34000
b00000000000000000000000001101111 #
b00000000000000000000000001000100 $
b00000000000000000000000001001000 %
0&
1'
1(
0+
0,
1-
1/
00
b101 2
b00000000000000000000000001000100 3
b00000000000000000000000001001000 4
b00000000000000000000000000000000 5
b00000000000000000000000001000100 6
b00000000000000000000000001001000 7
b00000000000000000000000001000100 8
b00000000000000000000000001000100 9
b00000000000000000000000000000000 ;
b00000000000000000000000000000001 <
b00000000000000000000000001000100 =
0?
b000000000000 A
b000 B
b00000000000000000000 C
b0000000000000000000000000 D
b11011 E
b0000 F
b00001001 c
b00000 g
b00000 h
b00000 i
1,!
